1.2.:
flde-live-memstick-image-1655222827-net-v1.2-1-x86_64_amd64-1b.img.gz
flde-live-stable.img.gz
https://gitlab.com/openbsd98324/flde-live/-/raw/main/pub/flde-live/bsd-linux/v1.2/flde-live-memstick-image-1655222827-net-v1.2-1-x86_64_amd64-1b.img.gz

1.5.: 
https://gitlab.com/openbsd98324/flde-live/-/raw/main/pub/flde-live/bsd-linux/v1.5/flde-live-memstick-image-1655222827-net-v1.5.3-1-x86_64_amd64-1c.img.gz

1.5.2:
https://gitlab.com/openbsd98324/flde-live/-/raw/main/pub/flde-live/bsd-linux/v1.5.2/flde-live-memstick-image-1655222827-net-v1.5.2-152-1-x86_64_amd64-1vd.img.gz



